ID_Metriky;Datum;NazevHodnoty;Hodnota;NazevHodnoty;Hodnota;NazevHodnoty;Hodnota;
1;1.1.2019;Splněných;46;Nesplněných;23;Rozdělaných;31
1;1.2.2019;Splněných;51;Nesplněných;20;Rozdělaných;29
1;1.3.2019;Splněných;60;Nesplněných;10;Rozdělaných;30
1;1.4.2019;Splněných;84;Nesplněných;0;Rozdělaných;16